<?xml version="1.0" encoding="utf-8"?>
<!-- Generator: Adobe Illustrator 21.0.0, SVG Export Plug-In . SVG Version: 6.00 Build 0)  -->
<svg version="1.1" id="Layer_1" xmlns="http://www.w3.org/2000/svg" xmlns:xlink="http://www.w3.org/1999/xlink" x="0px" y="0px"
	 width="32px" height="32px" viewBox="0 0 32 32" style="enable-background:new 0 0 32 32;" xml:space="preserve">
<style type="text/css">
	.st0{fill:#FFFFFF;}
</style>
<path class="st0" d="M10.1,8.2c0,1.3-0.1,2.5,0,3.8c0.1,1.1,0.8,2,1.6,2.8c0.9,0.8,2.3,0.6,3-0.4c0.9-1.1,1.5-2.3,1.3-3.7c-0.1-0.8,0-1.6,0-2.5
	c-0.5,0-1,0-1.5,0c-0.5,0-0.7-0.1-0.7-0.7c0-0.1,0-0.4,0-0.5c0-0.4,0.1-0.6,0.6-0.6c0.7,0,1.4,0,2,0c0.7,0,1.2,0.5,1.2,1.2
	c0,1.8,0,3.6-0.3,5.4c-0.2,1.7-1.3,3.1-2.7,4c-0.7,0.5-0.9,1.1-0.9,1.8c0,1.2,0,2.3-0.1,3.4c-0.3,2.3-2.3,4.1-4.7,4.3
	c-1.1,0.1-2.2,0.1-3.2-0.4c-2-0.9-3.1-2.6-3.1-4.8c0-0.8,0-1.5,0-2.3c0-0.4-0.1-0.7-0.5-0.9c-1.4-0.7-2-2.2-1.5-3.6
	c0.5-1.4,2-2.3,3.4-2s2.5,1.6,2.4,3.1c-0.1,1.2-0.7,2-1.7,2.5c-0.3,0.1-0.4,0.3-0.4,0.6c0,0.9,0,1.9,0,2.8c0.1,1.7,1.2,3.1,2.9,3.3
	c0.7,0.1,1.3,0.1,2,0c1.5-0.2,2.6-1.5,2.8-2.9c0.1-1,0.1-2,0-3c-0.1-0.5-0.4-1-0.7-1.5c-0.6-0.9-1.2-1.7-1.8-2.5
	c-0.9-1.4-1.3-2.9-1.3-4.5c0-0.8,0-1.6,0-2.4c0-0.9,0.5-1.5,1.5-1.5c0.6,0,1.2,0,1.8,0c0.4,0,0.6,0.1,0.6,0.5c0,0.2,0,0.4,0,0.6
	c0,0.4-0.1,0.7-0.6,0.6C11.1,8.2,10.6,8.2,10.1,8.2z M3.6,13.9c-0.9,0-1.6,0.7-1.6,1.6c0,0.9,0.7,1.6,1.6,1.6s1.6-0.7,1.5-1.6
	C5.2,14.6,4.5,13.9,3.6,13.9z M17.9,18.9c-0.6,0-1.1,0.2-1.5,0.7s-0.5,1-0.5,1.7c0,0.8,0.1,1.4,0.5,1.8c0.4,0.4,0.8,0.6,1.5,0.6
	c0.3,0,0.5,0,0.8-0.1c0.3-0.1,0.5-0.1,0.8-0.2v0.9c-0.5,0.2-1.1,0.3-1.7,0.3c-0.9,0-1.7-0.3-2.2-0.9c-0.5-0.6-0.7-1.4-0.7-2.5
	c0-0.7,0.1-1.2,0.4-1.7c0.2-0.5,0.6-0.9,1.1-1.2c0.4-0.3,1-0.4,1.6-0.4c0.7,0,1.2,0.1,1.8,0.4l-0.4,0.9c-0.2-0.1-0.4-0.2-0.7-0.3
	C18.4,19,18.1,18.9,17.9,18.9z M23.6,18.9c-0.6,0-1.1,0.2-1.5,0.7s-0.5,1-0.5,1.7c0,0.8,0.1,1.4,0.5,1.8c0.4,0.4,0.8,0.6,1.5,0.6
	c0.3,0,0.5,0,0.8-0.1c0.3-0.1,0.5-0.1,0.8-0.2v0.9c-0.5,0.2-1.1,0.3-1.7,0.3c-0.9,0-1.7-0.3-2.2-0.9c-0.5-0.6-0.7-1.4-0.7-2.5
	c0-0.7,0.1-1.2,0.4-1.7c0.2-0.5,0.6-0.9,1.1-1.2c0.4-0.3,1-0.4,1.6-0.4c0.7,0,1.2,0.1,1.8,0.4L25,19.2c-0.2-0.1-0.4-0.2-0.7-0.3
	C24.1,19,23.8,18.9,23.6,18.9z M31.3,24.6H30L28.4,22l-1.6,2.6h-1.1l2.1-3.3l-2-3.1H27l1.5,2.4l1.5-2.4h1.2l-2,3.1L31.3,24.6z"/>
</svg>
