<?xml version="1.0" encoding="utf-8"?>
<!-- Generator: Adobe Illustrator 21.0.0, SVG Export Plug-In . SVG Version: 6.00 Build 0)  -->
<svg version="1.1" id="Layer_1" xmlns="http://www.w3.org/2000/svg" xmlns:xlink="http://www.w3.org/1999/xlink" x="0px" y="0px"
	 width="32px" height="32px" viewBox="0 0 32 32" style="enable-background:new 0 0 32 32;" xml:space="preserve">
<style type="text/css">
	.st0{fill:#FFFFFF;}
</style>
<path class="st0" d="M4.5,4.5c0,0.2,0,0.2,0,0.3c0,1.4,0,2.9,0,4.3c0,0.8,0.4,1.1,1.1,1.1c1.8,0,3.6,0,5.4,0c0.8,0,1.1-0.4,1.1-1.1
	c0-1.4,0-2.9,0-4.3c0-0.1,0-0.2,0-0.4c2.6,0,5.1,0,7.7,0c0,0.1,0,0.2,0,0.3c0,1.4,0,2.9,0,4.3c0,0.8,0.4,1.2,1.2,1.2
	c1.8,0,3.6,0,5.3,0c0.8,0,1.2-0.4,1.2-1.2c0-1.4,0-2.9,0-4.3c0-0.1,0-0.2,0-0.3c0.8,0,1.5-0.1,2.2,0c0.9,0.1,1.5,0.9,1.6,1.9
	c0,0.9,0,1.7,0,2.6c0,6.7,0,13.5,0,20.1c0,1.4-0.8,2.2-2.2,2.2c-8.8,0-17.5,0-26.3,0c-1.4,0-2.2-0.8-2.2-2.2c0-7.5,0-15,0-22.6
	c0-1.1,0.6-1.9,1.5-2C3,4.4,3.8,4.5,4.5,4.5z M16,29.4c3.2,0,6.4,0,9.5,0c0.9,0,1.9,0,2.7,0c0.8,0,1.2-0.4,1.2-1.2
	c0-0.1,0-0.2,0-0.2c0-3.6,0-7.2,0-10.8c0-1.3,0-2.6,0-4c0-0.7-0.4-1.1-1.1-1.1c-0.1,0-0.1,0-0.2,0c-8.1,0-16.2,0-24.3,0
	c-0.9,0-1.2,0.3-1.2,1.2c0,4.9,0,9.8,0,14.6c0,0.1,0,0.2,0,0.3c0,0.6,0.4,1,1,1c0.1,0,0.2,0,0.3,0C7.9,29.4,12,29.4,16,29.4z
	 M10.3,4.5c0,0.9,0,1.9,0,2.7c0,0.7-0.4,1.1-1.1,1.1c-0.5,0-1.1,0-1.7,0c-0.7,0-1.1-0.4-1.1-1.1c0-1.8,0-3.6,0-5.4
	c0-0.7,0.4-1.1,1.1-1.1c0.5,0,1.1,0,1.7,0c0.7,0,1.1,0.4,1.1,1.1C10.3,2.6,10.3,3.6,10.3,4.5z M25.6,4.5c0,0.9,0,1.8,0,2.7
	c0,0.7-0.4,1.1-1.1,1.1c-0.5,0-1.1,0-1.7,0c-0.7,0-1.1-0.4-1.1-1.1c0-1.9,0-3.6,0-5.5c0-0.7,0.4-1.1,1.1-1.1c0.5,0,1.1,0,1.6,0
	c0.7,0,1.1,0.4,1.1,1.1C25.6,2.6,25.6,3.6,25.6,4.5z M8.3,16.8H7.5c-0.9,0-1.5-0.7-1.5-1.5l0,0c0-0.9,0.7-1.5,1.5-1.5h0.9
	c0.9,0,1.5,0.7,1.5,1.5l0,0C9.9,16.1,9.2,16.8,8.3,16.8z M13.8,16.8h-0.9c-0.9,0-1.5-0.7-1.5-1.5l0,0c0-0.9,0.7-1.5,1.5-1.5h0.9
	c0.9,0,1.5,0.7,1.5,1.5l0,0C15.2,16.1,14.6,16.8,13.8,16.8z M19.2,16.8h-0.9c-0.9,0-1.5-0.7-1.5-1.5l0,0c0-0.9,0.7-1.5,1.5-1.5h0.9
	c0.9,0,1.5,0.7,1.5,1.5l0,0C20.6,16.1,20,16.8,19.2,16.8z M24.6,16.8h-0.9c-0.9,0-1.5-0.7-1.5-1.5l0,0c0-0.9,0.7-1.5,1.5-1.5h0.9
	c0.9,0,1.5,0.7,1.5,1.5l0,0C26.1,16.1,25.4,16.8,24.6,16.8z M8.3,20.5H7.5c-0.9,0-1.5-0.7-1.5-1.5l0,0c0-0.9,0.7-1.5,1.5-1.5h0.9
	c0.9,0,1.5,0.7,1.5,1.5l0,0C9.9,19.9,9.2,20.5,8.3,20.5z M13.8,20.5h-0.9c-0.9,0-1.5-0.7-1.5-1.5l0,0c0-0.9,0.7-1.5,1.5-1.5h0.9
	c0.9,0,1.5,0.7,1.5,1.5l0,0C15.2,19.9,14.6,20.5,13.8,20.5z M19.2,20.5h-0.9c-0.9,0-1.5-0.7-1.5-1.5l0,0c0-0.9,0.7-1.5,1.5-1.5h0.9
	c0.9,0,1.5,0.7,1.5,1.5l0,0C20.6,19.9,20,20.5,19.2,20.5z M24.6,20.5h-0.9c-0.9,0-1.5-0.7-1.5-1.5l0,0c0-0.9,0.7-1.5,1.5-1.5h0.9
	c0.9,0,1.5,0.7,1.5,1.5l0,0C26.1,19.9,25.4,20.5,24.6,20.5z M8.3,24.3H7.5c-0.9,0-1.5-0.7-1.5-1.5l0,0c0-0.9,0.7-1.5,1.5-1.5h0.9
	c0.9,0,1.5,0.7,1.5,1.5l0,0C9.9,23.6,9.2,24.3,8.3,24.3z M13.8,24.3h-0.9c-0.9,0-1.5-0.7-1.5-1.5l0,0c0-0.9,0.7-1.5,1.5-1.5h0.9
	c0.9,0,1.5,0.7,1.5,1.5l0,0C15.2,23.6,14.6,24.3,13.8,24.3z M19.2,24.3h-0.9c-0.9,0-1.5-0.7-1.5-1.5l0,0c0-0.9,0.7-1.5,1.5-1.5h0.9
	c0.9,0,1.5,0.7,1.5,1.5l0,0C20.6,23.6,20,24.3,19.2,24.3z M24.6,24.3h-0.9c-0.9,0-1.5-0.7-1.5-1.5l0,0c0-0.9,0.7-1.5,1.5-1.5h0.9
	c0.9,0,1.5,0.7,1.5,1.5l0,0C26.1,23.6,25.4,24.3,24.6,24.3z M8.3,28.2H7.5c-0.9,0-1.5-0.7-1.5-1.5l0,0c0-0.9,0.7-1.5,1.5-1.5h0.9
	c0.9,0,1.5,0.7,1.5,1.5l0,0C9.9,27.5,9.2,28.2,8.3,28.2z M13.8,28.2h-0.9c-0.9,0-1.5-0.7-1.5-1.5l0,0c0-0.9,0.7-1.5,1.5-1.5h0.9
	c0.9,0,1.5,0.7,1.5,1.5l0,0C15.2,27.5,14.6,28.2,13.8,28.2z M19.2,28.2h-0.9c-0.9,0-1.5-0.7-1.5-1.5l0,0c0-0.9,0.7-1.5,1.5-1.5h0.9
	c0.9,0,1.5,0.7,1.5,1.5l0,0C20.6,27.5,20,28.2,19.2,28.2z M24.6,28.2h-0.9c-0.9,0-1.5-0.7-1.5-1.5l0,0c0-0.9,0.7-1.5,1.5-1.5h0.9
	c0.9,0,1.5,0.7,1.5,1.5l0,0C26.1,27.5,25.4,28.2,24.6,28.2z"/>
</svg>
