<?xml version="1.0" encoding="utf-8"?>
<!-- Generator: Adobe Illustrator 21.0.0, SVG Export Plug-In . SVG Version: 6.00 Build 0)  -->
<svg version="1.1" id="Layer_1" xmlns="http://www.w3.org/2000/svg" xmlns:xlink="http://www.w3.org/1999/xlink" x="0px" y="0px"
	 width="32px" height="32px" viewBox="0 0 32 32" style="enable-background:new 0 0 32 32;" xml:space="preserve">
<style type="text/css">
	.st0{fill:#FFFFFF;}
</style>
<path class="st0" d="M29.6,4.3H2.4C1.6,4.3,1,5,1,5.8v16.9c0,0.8,0.6,1.4,1.4,1.4h6.8v3.5l4.5-3.5h15.9c0.8,0,1.4-0.6,1.4-1.4V5.8
	C31,5,30.4,4.3,29.6,4.3C29.6,4.3,29.6,4.3,29.6,4.3z M17,8.1c0.5-0.4,1.2-0.6,1.8-0.5c0.4,0,0.7,0.1,1.1,0.3
	c0.3,0.1,0.5,0.4,0.6,0.7c0,0,0,0.1,0.1,0.1c0.3,0.3,0.4,0.7,0.4,1.1c0,0.1,0,0.2,0,0.3c0,0.2,0,0.3,0.1,0.4
	c0.1,0.2,0.2,0.5,0.1,0.7c-0.1,0.4-0.2,0.8-0.5,1.1c-0.1,0.1-0.1,0.2-0.2,0.3c-0.2,0.7-0.8,1.2-1.4,1.4c-0.1,0-0.2,0-0.3,0.1
	c0.2-0.4,0.2-0.7,0.1-1.1c-0.1-0.4-0.2-0.8-0.2-1.3c0-0.1,0-0.2-0.1-0.2c-0.2-0.4-0.4-0.8-0.6-1.2c-0.3-0.5-0.8-0.8-1.4-0.8l-0.2,0
	C16.4,8.9,16.6,8.5,17,8.1z M17.1,10.2c0.3,0.1,0.5,0.4,0.6,0.7c0,0.1,0,0.1,0.1,0.1c0.3,0.3,0.4,0.7,0.4,1.1c0,0.1,0,0.1,0,0.2l0,0
	c0,0.1,0,0.1,0,0.2c0,0.1,0,0.2,0.1,0.3c0.1,0.2,0.2,0.4,0.1,0.6c0,0.4-0.2,0.9-0.5,1.2c-0.1,0.1-0.1,0.1-0.1,0.2
	c-0.2,0.7-0.7,1.2-1.4,1.4c-0.6,0.2-1.2,0-1.6-0.4c-0.3-0.3-0.5-0.6-0.6-1c0-0.1-0.1-0.2-0.1-0.2c-0.3-0.4-0.5-0.9-0.5-1.4
	c0-0.2,0-0.4,0.2-0.6c0,0,0-0.1,0-0.2c0-0.3,0-0.6,0-0.9c0.1-0.8,0.7-1.5,1.5-1.6C15.8,9.8,16.5,9.9,17.1,10.2z M10.6,10.8
	c0-0.1,0-0.2,0.1-0.2c0.1-0.1,0.1-0.2,0.1-0.3c0-0.3,0-0.6,0-0.9c0.1-0.9,0.9-1.7,1.8-1.7c0.5-0.1,1.1,0,1.6,0.2
	c0.4,0.1,0.6,0.4,0.7,0.8c0,0.1,0,0.1,0.1,0.1c0.2,0.2,0.3,0.5,0.3,0.7c-0.5,0.1-1,0.3-1.4,0.7c-0.5,0.4-0.7,1-0.7,1.6
	c0,0.2,0,0.4,0,0.6c0,0.1,0,0.2-0.1,0.3c-0.2,0.4-0.2,0.7-0.1,1.1c0,0.1,0.1,0.2,0.1,0.3c-0.1,0-0.2,0-0.3-0.1
	c-0.7-0.2-1.2-0.8-1.4-1.4c0-0.1-0.1-0.2-0.2-0.3C10.7,12,10.5,11.4,10.6,10.8z M10.4,17.9c-0.8-0.1-1.7-0.3-2.5-0.6
	c-0.1,0-0.2-0.1-0.2-0.3c0-0.8,0.3-1.5,0.7-2.2c0.2-0.3,0.5-0.6,0.8-0.7c0.6-0.3,1.2-0.5,1.8-0.8c0.1,0,0.1,0,0.2,0.1
	c0.3,0.5,0.8,0.8,1.4,0.9h0.1c0.3,0,0.4,0.1,0.6,0.3c0.1,0.2,0.2,0.4,0.4,0.6c-0.3,0.1-0.7,0.2-0.9,0.4c-0.3,0.1-0.5,0.2-0.8,0.4
	c-0.7,0.4-1.2,0.9-1.4,1.6L10.4,17.9z M20.8,19.7c-0.6,0.2-1.1,0.4-1.7,0.4c-1.2,0.2-2.4,0.2-3.6,0.2c-0.6,0-1.5-0.1-2.5-0.2
	c-0.8-0.1-1.5-0.2-2.3-0.5c-0.1,0-0.2-0.1-0.2-0.2c0-0.8,0.3-1.6,0.8-2.3c0.3-0.4,0.8-0.7,1.3-0.8c0.4-0.2,0.8-0.3,1.2-0.5
	c0-0.1,0.1-0.1,0.2-0.1c0.1,0,0.1,0.1,0.1,0.2c0.3,0.4,0.8,0.7,1.3,0.8c0.7,0.1,1.3-0.1,1.8-0.5c0.1-0.1,0.2-0.2,0.3-0.3
	c0-0.1,0.1-0.1,0.2,0c0,0,0,0,0,0l1.6,0.7c0.7,0.3,1.3,0.9,1.5,1.7c0.1,0.4,0.2,0.8,0.3,1.2C21.1,19.6,21.1,19.6,20.8,19.7
	L20.8,19.7z M23.6,17.4c-0.6,0.2-1.3,0.4-1.9,0.5c-0.1,0-0.2,0-0.3,0c-0.2,0.1-0.3,0-0.3-0.2c-0.3-0.8-0.9-1.4-1.7-1.7
	c-0.4-0.2-0.9-0.4-1.3-0.6l-0.2-0.1c0.2-0.2,0.3-0.5,0.4-0.7c0.1-0.2,0.3-0.3,0.5-0.3c0.5-0.1,1-0.4,1.4-0.8l0.2-0.2
	c0.7,0.3,1.4,0.6,2,0.9c0.3,0.2,0.6,0.5,0.8,0.8c0.3,0.6,0.6,1.2,0.6,1.9C23.9,17.1,23.8,17.3,23.6,17.4
	C23.6,17.4,23.6,17.4,23.6,17.4z"/>
</svg>
